{
    "threshold": 0.5, 
    "codes": "CODING A", 
    "values": [
        1.0, 
        5.0
    ], 
    "impurity": 0.65002242164835411, 
    "name": "A", 
    "importance": 0.48719717623270181, 
    "desc": "A variable", 
    "children": [
        {
            "threshold": 0.5, 
            "codes": "CODING B", 
            "values": [
                1.0, 
                1.0
            ], 
            "impurity": 1.0, 
            "name": "B", 
            "importance": 0.51280282376729813, 
            "desc": "B variable", 
            "children": [
                {
                    "codes": "CODING K", 
                    "impurity": 0.0, 
                    "name": "K", 
                    "n": 1, 
                    "values": [
                        0.0, 
                        1.0
                    ], 
                    "desc": "K variable"
                }, 
                {
                    "codes": "CODING K", 
                    "impurity": 0.0, 
                    "name": "K", 
                    "n": 1, 
                    "values": [
                        1.0, 
                        0.0
                    ], 
                    "desc": "K variable"
                }
            ], 
            "n": 2
        }, 
        {
            "codes": "CODING K", 
            "impurity": 0.0, 
            "name": "K", 
            "n": 4, 
            "values": [
                0.0, 
                4.0
            ], 
            "desc": "K variable"
        }
    ], 
    "n": 6
}